First Name	Last Name	Email Address	Phone Number	Company Name
Gerhard	Kautzer	gerhardkautzer@cronabayer.com	1-207-643-1816	Hodkiewicz-Lynch
Myra	Crona	myracrona@schinner.info	(724)196-9470 x998	Champlin-Hahn
Josh	Donnelly	joshdonnelly@macejkovic.us	081-799-3139 x248	Casper Group
Verna	Farrell	vernafarrell@schillercorkery.name	731.101.6219	Rosenbaum-Hane
Julian	Orn	julianorn@altenwerth.co.uk	037.652.8620 x24253	Kuhic Group
